[
	{
		"type": "database",
		"name": "birds",
		"display": {
			"icon": "duckduckgo",
			"color": "#feee00",
			"layouts": "zeus+tablify.layouts.staticList([\"map\"])"
		},
		"availableTypes": [
			"bird"
		],
		"_id": "9395f25e-058f-4d1c-931d-f9b6e1085eb1"
	},
	{
		"type": "type",
		"name": "bird",
		"edit": {
			"structure": [
				{
					"inputifyType": "intertitle",
					"key": "OCCURENCE"
				},
				{
					"inputifyType": "dateTime",
					"key": "date"
				},
				{
					"key": "location",
					"inputifyType": "geo",
					"geo": {
						"shape": [
							"point",
							"circle"
						]
					}
				},
				{
					"inputifyType": "intertitle",
					"key": "CHARACTERISTICS"
				},
				{
					"inputifyType": "simple",
					"key": "specie",
					"choices": "zeus+inputify.choices.valuesInThisDatabaseEntries_sameKey(null)"
				},
				{
					"inputifyType": "radio",
					"key": "gender",
					"choices": [
						"female",
						"male"
					]
				},
				{
					"inputifyType": "textarea",
					"key": "comment"
				},
				{
					"inputifyType": "files",
					"key": "images",
					"file": {
						"fileTypes": [
							"image"
						],
						"process": [
							"zeus+inputify.fileProcess.resizePrompt"
						]
					}
				}
			]
		},
		"display": {
			"title": "zeus+display.title.valueOrResult(\"specie\",null)",
			"icon": "zeus+display.icon.valueToIcon(\"gender\",{\"female\":\"female\",\"male\":\"male\"},null)",
			"color": "zeus+display.color.valueToColor(\"specie\",{\"Bonxie\":\"#0ce407\",\"Common Buzzard\":\"#200336\",\"Capercaillie\":\"#0ce9c1\",\"Corncrake\":\"#00c973\",\"Crested Tit\":\"#d29612\",\"Scottish Crossbill\":\"#3c208a\",\"Dipper\":\"#e98d8d\",\"Dotterel\":\"#3fad98\",\"Golden Eagle\":\"#c48989\",\"Eiders\":\"#8f6868\",\"Grebes\":\"#d87300\",\"Hen Harrier\":\"#a3a800\",\"Kestrel\":\"#33aa00\",\"Red Kite\":\"#f00000\",\"Osprey\":\"#be0606\",\"Owls\":\"#a5509a\",\"Merlin\":\"#e2f60a\",\"Peregrine Falcon\":\"#281616\",\"Puffin\":\"#0021cf\",\"Rook\":\"#b8054c\",\"Snow Bunting\":\"#9568f9\",\"Storm Petrel\":\"#000000\",\"Whooper Swan\":\"#b6b4b4\",\"Wintering Geese\":\"#ffffff\",\"Spotted Woodpecker\":\"#4d8036\"},\"#000000\")",
			"additional": {
				"geoKey": "zeus+display.geoKey.result(\"location\")"
			},
			"image": "zeus+display.image.imageAttachedToEntry(\"images[0]\")"
		},
		"action": {
			"view": "zeus+action.view.edit",
			"storeInHash": [
				"edit"
			]
		},
		"_id": "bc963193-b4ab-4b3c-8adf-98b617579daf"
	}
]